{
  "environments": {
    "stage": {
      "api_endpoint": "vault-api.zenginehq.com",
      "access_token": "-----------------------------",
      "plugins": {
        "nflcasemgmt": {
          "id": 1111111,
          "namespace": "nflcasemgmtstage",
          "route": "/nflcasemgmtstage"
        }
      },
      "default": true
    }
  }
}